<?xml version="1.0" encoding="UTF-8"?>
<svg width="34px" height="21px" viewBox="0 0 34 21" version="1.1" xmlns="http://www.w3.org/2000/svg" xmlns:xlink="http://www.w3.org/1999/xlink">
    <title>kamera 1,5 px</title>
    <g id="Siste_versjon-Copy-2" stroke="none" stroke-width="1" fill="none" fill-rule="evenodd">
        <g id="Digital_arrangement_m_bilde" transform="translate(-688.000000, -438.000000)" stroke="#081319">
            <g id="Group-5" transform="translate(689.000000, 182.000000)">
                <g id="Group-3" transform="translate(0.000000, 108.000000)">
                    <g id="kamera-1,5-px" transform="translate(0.000000, 149.000000)">
                        <g id="kamera-1-px">
                            <g id="kamera-copy" stroke-width="1.5">
                                <g id="Group">
                                    <g id="Group-Copy">
                                        <rect id="Rectangle" x="3.12638804e-14" y="0" width="22.6461538" height="18.8020833" rx="4"></rect>
                                        <polyline id="Path-2" points="26.0923077 5.69010417 31.425641 3.54600694 31.425641 14.2664931 26.0923077 12.6584201"></polyline>
                                    </g>
                                    <line x1="6" y1="4.61805556" x2="16.6666667" y2="4.61805556" id="Line-6-Copy-2" stroke-linecap="square"></line>
                                </g>
                            </g>
                        </g>
                    </g>
                </g>
            </g>
        </g>
    </g>
</svg>