<svg width="30" height="42" viewBox="0 0 30 42" fill="none" xmlns="http://www.w3.org/2000/svg">
<path fill-rule="evenodd" clip-rule="evenodd" d="M1.39651 35.8407C0.713434 35.4161 0.288818 34.2899 0.288818 33.4038C0.288818 31.6499 1.83959 30.0991 3.6119 30.0991C4.70113 30.0991 5.3842 30.3022 6.04882 30.9668C8.48574 33.4038 11.3657 34.7515 15.1134 34.7515C19.1011 34.7515 22.2027 32.3145 22.2027 28.7515V28.5484C22.2027 24.5607 18.455 22.3268 12.9165 22.3268H11.3657C9.81497 22.3268 8.2642 20.9976 8.2642 19.4468C8.2642 18.5607 8.68882 17.6745 9.81497 16.5853L19.3411 6.59761H4.70113C2.94728 6.59761 1.59959 5.04684 1.59959 3.49607C1.59959 1.72376 2.94728 0.394531 4.70113 0.394531H25.3042C27.3165 0.394531 28.8673 1.72376 28.8673 3.49607C28.8673 5.04684 27.9811 6.17299 26.855 7.26222L17.3288 17.0099C23.5504 17.8961 29.2919 20.9976 29.2919 28.3268C29.2919 35.8407 23.5504 41.1761 15.1134 41.1761C9.15036 41.1761 4.70113 38.9422 1.39651 35.8407Z" fill="white"/>
</svg>
