<svg width="105" height="414" viewBox="0 0 105 414" fill="none" xmlns="http://www.w3.org/2000/svg">
<path d="M8.73919e-06 346.484C7.88239e-06 353.018 3.15001 359.029 8.4 362.819L72.7125 409.47C81.8999 415.873 94.4999 413.652 100.931 404.504C107.231 395.618 105.262 383.335 96.5999 376.801L54.8625 346.484L96.6 316.168C96.8624 315.906 97.1249 315.645 97.3874 315.514C98.4374 314.599 99.4874 313.685 100.406 312.509C100.669 312.247 100.931 311.986 101.062 311.725C101.194 311.463 101.325 311.202 101.456 311.071C101.85 310.418 102.244 309.895 102.506 309.242C102.769 308.719 103.031 308.196 103.294 307.543C103.556 306.89 103.687 306.236 103.95 305.713C104.081 305.06 104.344 304.407 104.475 303.884C104.606 303.231 104.606 302.577 104.737 302.055C104.737 301.401 104.869 300.748 104.869 300.094C104.869 299.441 104.869 298.788 104.737 298.134C104.737 297.481 104.606 296.827 104.475 296.305C104.344 295.651 104.212 294.998 103.95 294.345C103.819 293.691 103.556 293.038 103.294 292.515C103.031 291.992 102.769 291.339 102.506 290.816C102.112 290.163 101.85 289.51 101.456 288.987C101.325 288.726 101.194 288.464 101.062 288.334C100.931 288.203 100.669 287.942 100.537 287.68C99.8812 286.896 99.225 286.112 98.4375 285.459C98.0437 285.067 97.65 284.675 97.125 284.283C96.9937 284.152 96.7312 283.891 96.6 283.76L54.8625 253.443L96.6 223.126C96.8625 222.865 97.125 222.604 97.3875 222.473C97.9125 222.081 98.4375 221.558 98.9625 221.036C99.4875 220.513 100.012 219.99 100.406 219.467C100.669 219.206 100.931 218.945 101.062 218.683C101.194 218.422 101.325 218.161 101.456 218.03C101.85 217.377 102.244 216.723 102.637 216.07C102.9 215.547 103.162 215.024 103.425 214.371C103.687 213.718 103.819 213.195 104.081 212.542C104.212 211.888 104.475 211.235 104.606 210.581C104.737 209.928 104.737 209.275 104.869 208.752C104.869 208.099 105 207.445 105 206.792C105 206.138 105 205.485 104.869 204.832C104.869 204.178 104.737 203.525 104.606 203.002C104.475 202.349 104.344 201.695 104.081 201.042C103.95 200.389 103.687 199.735 103.425 199.213C103.162 198.69 102.9 198.037 102.637 197.514C102.244 196.86 101.981 196.207 101.456 195.554C101.325 195.292 101.194 195.031 101.062 194.9C100.931 194.639 100.669 194.508 100.537 194.247C99.8812 193.463 99.225 192.679 98.4375 192.025C98.0437 191.633 97.65 191.241 97.125 190.98C96.8625 190.849 96.7312 190.588 96.6 190.457L54.8625 160.141L96.6 129.824C96.8625 129.562 97.125 129.301 97.3875 129.17C97.9125 128.778 98.4375 128.256 98.9625 127.733C99.4875 127.21 99.8812 126.688 100.406 126.165C100.669 125.904 100.931 125.642 101.062 125.381C101.325 125.119 101.325 124.858 101.456 124.727C101.85 124.074 102.244 123.421 102.506 122.898C102.769 122.375 103.031 121.722 103.294 121.199C103.556 120.546 103.687 120.023 103.95 119.37C104.081 118.716 104.344 118.063 104.475 117.41C104.606 116.756 104.606 116.234 104.737 115.58C104.737 114.927 104.869 114.273 104.869 113.62C104.869 112.967 104.869 112.313 104.737 111.66C104.737 111.006 104.606 110.353 104.475 109.83C104.344 109.177 104.212 108.524 103.95 107.87C103.819 107.217 103.556 106.563 103.294 106.041C103.031 105.518 102.769 104.865 102.506 104.342C102.112 103.689 101.85 103.035 101.456 102.513C101.325 102.251 101.194 101.99 101.062 101.859C100.931 101.728 100.669 101.467 100.537 101.206C99.8812 100.422 99.225 99.6377 98.4375 98.9843C98.0437 98.5923 97.65 98.2002 97.125 97.8082C96.9937 97.6775 96.7312 97.4162 96.6 97.2855L54.8625 66.9687L96.6 36.6519C105.656 30.1181 107.625 17.4426 101.062 8.42595C94.5 -0.590686 81.7688 -2.5508 72.7125 3.98298L8.40004 50.6342C-0.656203 56.9067 -2.62495 69.5822 3.93754 78.5989C5.25004 80.2976 6.69379 81.8658 8.40004 83.0418L50.1375 113.359L8.40003 143.675C-0.656215 150.209 -2.62497 162.885 3.93753 171.901C5.25003 173.6 6.69378 175.168 8.40003 176.344L50.1375 206.661L8.40002 236.847C-0.656227 243.381 -2.62498 256.057 3.93752 265.073C5.25002 266.772 6.69377 268.34 8.40001 269.516L50.1375 299.833L8.40001 330.15C3.15001 333.939 9.57886e-06 340.081 8.73919e-06 346.484Z" fill="#FFB74C"/>
</svg>
