<svg version="1.1" xmlns="http://www.w3.org/2000/svg" xmlns:xlink="http://www.w3.org/1999/xlink" x="0px" y="0px"
	 width="16px" height="19px" viewBox="0 0 16 19" style="enable-background:new 0 0 16 19;" xml:space="preserve">
<style type="text/css">
	.st0{fill:none;stroke:#000000;stroke-width:0.9;stroke-miterlimit:10;}
	.st1{fill:none;stroke:#000000;stroke-miterlimit:10;}
</style>
<circle cx="8" cy="5" r="4.5"/>
<path d="M0.5,18.5v-3.75c0-1.24,1.01-2.25,2.25-2.25h10.5c1.24,0,2.25,1.01,2.25,2.25v3.75"/>
</svg>
