{
  "title": "Arrangementer",
  "form": {
    "endpoint": "/event-list"
  },
  "emptyList": { "text": "Det er dessverre ingen arrangementer akkurat nå." },
  "fetchFilteredResultsEndpoint": "/static-site/api/filtered-event-list-result.json",
  "events": [
    {
      "status": {
        "theme": "-is-active",
        "text": "Søk nå"
      },
      "id": "1",
      "title": "Hvordan søke ERC Advanced Grants",
      "subtitle": "Med en undertittel som krever mer plass til tittelområdet",
      "url": "/event",
      "dateContainer": {
        "datesTitle": "En tittel",
        "isInternational": true,
        "dates": [{ "day": "24", "month": "apr", "year": "2019" }],
        "eventImage": {
          "image": {
            "alt": "Olav Normann Hansen",
            "src": "/static-site/assets/profile-pic-2.jpg"
          }
        },
        "labels": { "pastDate": "Gjennomført" },
        "isPastDate": true
      },
      "metadata": {
        "items": [
          { "label": "Arrangementstype", "text": "kurs" },
          { "label": "Varighet", "text": "2 dager" },
          {
            "icon": { "iconTheme": "pdf" },
            "label": "Sted",
            "text": "Trondheim"
          }
        ]
      },
      "tags": {
        "accordion": {
          "guid": "9xczvy8mzofmafmasdlf",
          "collapseLabel": "Skjul",
          "expandLabel": "+ 3 temaer"
        },
        "items": [
          { "text": "Energi", "url": "/?1" },
          { "text": "Klima/Miljø", "url": "/?2" },
          { "text": "Helse", "url": "/?3" },
          { "text": "Lorem", "url": "/?4" },
          { "text": "Ipsum", "url": "/?5" },
          { "text": "Dolor", "url": "/?6" },
          { "text": "Sit amet", "url": "/?7" }
        ]
      }
    },
    {
      "status": {
        "theme": "-is-active",
        "text": "Søk nå"
      },
      "id": "1",
      "title": "Hvordan søke ERC Advanced Grants",
      "subtitle": "Med en undertittel som krever mer plass til tittelområdet",
      "url": "/event",
      "dateContainer": {
        "datesTitle": "En tittel",
        "isInternational": true,
        "dates": [{ "day": "24", "month": "apr", "year": "2019" }],
        "labels": { "pastDate": "Gjennomført" }
      },
      "metadata": {
        "items": [
          { "label": "Arrangementstype", "text": "kurs" },
          { "label": "Varighet", "text": "2 dager" },
          {
            "icon": { "iconTheme": "pdf" },
            "label": "Sted",
            "text": "Trondheim"
          }
        ]
      },
      "tags": {
        "accordion": {
          "guid": "9xczvy8mzofmafmasdlf",
          "collapseLabel": "Skjul",
          "expandLabel": "+ 3 temaer"
        },
        "items": [
          { "text": "Energi", "url": "/?1" },
          { "text": "Klima/Miljø", "url": "/?2" },
          { "text": "Helse", "url": "/?3" },
          { "text": "Lorem", "url": "/?4" },
          { "text": "Ipsum", "url": "/?5" },
          { "text": "Dolor", "url": "/?6" },
          { "text": "Sit amet", "url": "/?7" }
        ]
      }
    },
    {
      "id": "2",
      "isPastDate": false,
      "title": "Drift og økonomi i et EU-prosjekt",
      "url": "/event",
      "dateContainer": {
        "dates": [{ "day": "04–06", "month": "apr" }],
        "labels": { "pastDate": "Gjennomført" },
        "eventImage": {
          "background": "background1",
          "image": {
            "alt": "Olav Normann Hansen",
            "src": "/static-site/assets/profile-pic-2.jpg"
          }
        }
      },
      "metadata": {
        "items": [
          { "label": "Varighet", "text": "2 dager" },
          { "label": "Sted", "text": "Trondheim" }
        ]
      },
      "media": {
        "items": [
          { "icon": "slideshow", "url": null, "text": "Filmes direkte" },
          {
            "icon": "camera",
            "text": "Arrangementet strømmes og opptak blir tilgjengelig"
          },
          { "icon": "slideshow", "url": null, "text": "Filmes direkte" }
        ]
      },
      "text": "Forskningsrådet vil sammen med NTNU hjelpe deg med å sende en konkurransedyktig søknad til ERC og inviterer til workshop.",
      "tags": {
        "accordion": {
          "guid": "axldkvhmfvqoewy8tmvlskjdhfm",
          "collapseLabel": "Skjul",
          "expandLabel": "+ 3 temaer"
        },
        "items": [
          { "text": "Energi", "url": "/?1" },
          { "text": "Klima/Miljø", "url": "/?2" },
          { "text": "Helse", "url": "/?3" }
        ]
      }
    },
    {
      "id": "3",
      "isPastDate": true,
      "title": "Hvordan søke ERC Advanced Grants?",
      "url": "/event",
      "dateContainer": {
        "datesTitle": "En tittel",
        "dates": [
          { "day": "31.", "month": "apr", "year": "2020" },
          { "day": "02.", "month": "mai", "year": "2020" }
        ],
        "labels": { "pastDate": "Gjennomført" },
        "eventImage": {
          "background": "background2"
        },
        "isPlanned": true
      },
      "status": {
        "theme": "-is-active",
        "text": "Søk nå"
      },
      "metadata": {
        "items": [
          { "label": "Varighet", "text": "2 dager" },
          { "label": "Sted", "text": "Trondheim" }
        ]
      },
      "media": {
        "items": [
          { "icon": "video", "url": "/?1", "text": "Se video" },
          { "icon": "slideshow", "url": "/?2", "text": "Se lysbilder" }
        ]
      },
      "text": "Forskningsrådet vil sammen med NTNU hjelpe deg med å sende en konkurransedyktig søknad til ERC og inviterer til workshop.",
      "tags": {
        "accordion": {
          "guid": "lkxcjvhnoqym4tlkmdvshsglfvkh",
          "collapseLabel": "Skjul",
          "expandLabel": "+ 3 temaer"
        },
        "items": [
          { "text": "Energi", "url": "/?1" },
          { "text": "Klima/Miljø", "url": "/?2" },
          { "text": "Helse", "url": "/?3" }
        ]
      }
    },
    {
      "id": "2",
      "isPastDate": false,
      "title": "Drift og økonomi i et EU-prosjekt",
      "url": "/event",
      "status": {
        "theme": "-is-planned",
        "text": "Søk nå"
      },
      "dateContainer": {
        "datesTitle": "En tittel",
        "datesDescription": "søknad",
        "isInternational": true,
        "isPlanned": true,
        "isPastDate": true,
        "dates": [
          { "day": "31", "month": "jul" },
          { "day": "01", "month": "sep" }
        ],
        "labels": { "pastDate": "Concluded" }
      },
      "metadata": {
        "items": [
          { "label": "Varighet", "text": "2 dager" },
          { "label": "Sted", "text": "Trondheim" }
        ]
      },
      "media": {
        "items": [
          { "icon": "slideshow", "url": null, "text": "Filmes direkte" }
        ]
      },
      "text": "Forskningsrådet vil sammen med NTNU hjelpe deg med å sende en konkurransedyktig søknad til ERC og inviterer til workshop.",
      "tags": {
        "accordion": {
          "guid": "axldkvhmfvqoewy8tmvlskjdhfm",
          "collapseLabel": "Skjul",
          "expandLabel": "+ 3 temaer"
        },
        "items": [
          { "text": "Energi", "url": "/?1" },
          { "text": "Klima/Miljø", "url": "/?2" },
          { "text": "Helse", "url": "/?3" }
        ]
      }
    }
  ],
  "topFilter": {
    "timeframe": {
      "value": 1,
      "name": "timeframe",
      "id": "timeframe"
    },
    "options": [
      {
        "isCurrent": true,
        "link": {
          "text": "Alle",
          "url": "/event-list?timeframe=all"
        }
      },
      {
        "link": { "text": "Kommende", "url": "/event-list?timeframe=future" }
      },
      { "link": { "text": "Utgåtte", "url": "/event-list?timeframe=past" } }
    ]
  },
  "filterLayout": {
    "labels": {
      "toggleFilters": "Filter"
    },
    "filters": {
      "checkboxes": [
        {
          "name": "show-with-video-only",
          "label": "Vis kun arrangementer med videoopptak"
        }
      ],
      "items": [
        {
          "title": "Fag/tema",
          "selectedAll": false,
          "accordion": {
            "guid": "098wnfg0q98eyn98ry",
            "expandLabel": "Vis",
            "collapseLabel": "Skjul"
          },
          "labels": {
            "reset": "Nullstill",
            "selectAll": "Alle",
            "submit": "Bruk"
          },
          "options": [
            {
              "name": "subject",
              "label": "Arbeidsliv, velferd og integrering (3)",
              "value": "1",
              "subOptions": [
                {
                  "name": "subject",
                  "label": "Verdensrommet",
                  "value": "1"
                },
                {
                  "name": "subject",
                  "label": "Stjerner og planeter",
                  "value": "2"
                },
                {
                  "name": "subject",
                  "label": "Galakser og sorte hull",
                  "value": "3"
                }
              ]
            },
            {
              "name": "subject",
              "label": "Bioteknologi (2)",
              "value": "2",
              "subOptions": [
                {
                  "name": "subject",
                  "label": "Klimaendringer",
                  "value": "1"
                },
                {
                  "name": "subject",
                  "label": "Energi",
                  "value": "2"
                }
              ]
            },
            {
              "name": "subject",
              "label": "Globalisering og utvikling (2)",
              "value": "3"
            },
            { "name": "subject", "label": "Humaniora (2)", "value": "4" },
            { "name": "subject", "label": "IKT (2)", "value": "5" },
            { "name": "subject", "label": "Klima og miljø (2)", "value": "6" },
            {
              "name": "subject",
              "label": "Landbruk, fiskeri og havbruk (2)",
              "value": "7"
            },
            {
              "name": "subject",
              "label": "Matematikk og naturvitenskap (2)",
              "value": "8"
            },
            {
              "name": "subject",
              "label": "Medisin og helse (2)",
              "value": "9"
            },
            { "name": "subject", "label": "Miljøteknologi (2)", "value": "10" },
            {
              "name": "subject",
              "label": "Nano- og materialteknologi (2)",
              "value": "11"
            },
            {
              "name": "subject",
              "label": "Petroleum og energi (3)",
              "value": "12"
            },
            {
              "name": "subject",
              "label": "Polar- og nordområdeforskning (3)",
              "value": "13"
            },
            { "name": "subject", "label": "Samferdsel (2)", "value": "14" },
            {
              "name": "subject",
              "label": "Samfunnvitenskap (3)",
              "value": "15"
            },
            {
              "name": "subject",
              "label": "Tjenesteytende næringer (2)",
              "value": "16"
            },
            { "name": "subject", "label": "Utdanning (2)", "value": "17" },
            {
              "name": "subject",
              "label": "Øvrige teknologier (32)",
              "value": "18"
            }
          ]
        },
        {
          "title": "Type arrangement",
          "selectedAll": true,
          "accordion": {
            "guid": "981298urnpunvp9qpow8eunrvq",
            "expandLabel": "Vis",
            "collapseLabel": "Skjul"
          },
          "labels": {
            "reset": "Nullstill",
            "selectAll": "Alle",
            "submit": "Bruk"
          },
          "options": [
            {
              "name": "type",
              "label": "Arbeidsliv, velferd og integrering (3)",
              "value": "1",
              "checked": true
            },
            {
              "name": "type",
              "label": "Bioteknologi (2)",
              "value": "2",
              "checked": true
            },
            {
              "name": "type",
              "label": "Globalisering og utvikling (2)",
              "value": "3",
              "checked": true
            },
            {
              "name": "type",
              "label": "Humaniora (2)",
              "value": "4",
              "checked": true
            },
            {
              "name": "type",
              "label": "IKT (2)",
              "value": "5",
              "checked": true
            },
            {
              "name": "type",
              "label": "Klima og miljø (2)",
              "value": "6",
              "checked": true
            }
          ]
        },
        {
          "title": "Sted",
          "selectedAll": false,
          "accordion": {
            "guid": "0+9834nqtv098funovwuqre9pg8nu",
            "expandLabel": "Vis",
            "collapseLabel": "Skjul"
          },
          "labels": {
            "reset": "Nullstill",
            "selectAll": "Alle",
            "submit": "Bruk"
          },
          "options": [
            {
              "name": "location",
              "label": "Arbeidsliv, velferd og integrering (3)",
              "value": "1"
            },
            { "name": "location", "label": "Bioteknologi (2)", "value": "2" },
            {
              "name": "location",
              "label": "Globalisering og utvikling (2)",
              "value": "3"
            },
            { "name": "location", "label": "Humaniora (2)", "value": "4" },
            { "name": "location", "label": "IKT (2)", "value": "5" },
            { "name": "location", "label": "Klima og miljø (2)", "value": "6" }
          ]
        }
      ]
    }
  }
}
